{
  "includes": [
    "history/history-api",
    "history/history-cli",
    "history/history-impl",
    "history/history-javafx",
    "history/history-logging",
    "history/history-prefs-json"
  ],
  "excludes": [
    ".settings*",
    ".bnd*",
    ".gradle",
    ".gitignore",
    ".exe",
    ".dll",
    ".lib",
    ".jar",
    ".classpath",
    ".zip",
    ".properties",
    ".props",
    ".project",
    ".png",
    ".json",
    "*Test.java",
    ".css",
    "META-INF/services/*",
    "src/test/*",
    "version.txt"
  ]
}
