[
    {
        "group": "com.google.code.findbugs",
        "version": "3.0.2",
        "name": "jsr305",
        "module": {
            "group": "com.google.code.findbugs",
            "name": "jsr305"
        }
    },
    {
        "group": "com.google.errorprone",
        "version": "2.1.3",
        "name": "error_prone_annotations",
        "module": {
            "group": "com.google.errorprone",
            "name": "error_prone_annotations"
        }
    },
    {
        "group": "com.google.guava",
        "version": "26.0-jre",
        "name": "guava",
        "module": {
            "group": "com.google.guava",
            "name": "guava"
        }
    },
    {
        "group": "com.google.j2objc",
        "version": "1.1",
        "name": "j2objc-annotations",
        "module": {
            "group": "com.google.j2objc",
            "name": "j2objc-annotations"
        }
    },
    {
        "group": "org.apache.jdbm",
        "version": "3.0-alpha5",
        "name": "jdbm",
        "module": {
            "group": "org.apache.jdbm",
            "name": "jdbm"
        }
    },
    {
        "group": "org.checkerframework",
        "version": "2.5.2",
        "name": "checker-qual",
        "module": {
            "group": "org.checkerframework",
            "name": "checker-qual"
        }
    },
    {
        "group": "org.codehaus.mojo",
        "version": "1.14",
        "name": "animal-sniffer-annotations",
        "module": {
            "group": "org.codehaus.mojo",
            "name": "animal-sniffer-annotations"
        }
    },
    {
        "group": "org.kohsuke",
        "version": "5.0.1",
        "name": "asm5",
        "module": {
            "group": "org.kohsuke",
            "name": "asm5"
        }
    },
    {
        "group": "org.openjfx",
        "version": "11.0.2",
        "name": "javafx-base",
        "module": {
            "group": "org.openjfx",
            "name": "javafx-base"
        }
    },
    {
        "group": "org.openjfx",
        "version": "11.0.2",
        "name": "javafx-base",
        "module": {
            "group": "org.openjfx",
            "name": "javafx-base"
        }
    },
    {
        "group": "org.openjfx",
        "version": "11.0.2",
        "name": "javafx-controls",
        "module": {
            "group": "org.openjfx",
            "name": "javafx-controls"
        }
    },
    {
        "group": "org.openjfx",
        "version": "11.0.2",
        "name": "javafx-controls",
        "module": {
            "group": "org.openjfx",
            "name": "javafx-controls"
        }
    },
    {
        "group": "org.openjfx",
        "version": "11.0.2",
        "name": "javafx-fxml",
        "module": {
            "group": "org.openjfx",
            "name": "javafx-fxml"
        }
    },
    {
        "group": "org.openjfx",
        "version": "11.0.2",
        "name": "javafx-graphics",
        "module": {
            "group": "org.openjfx",
            "name": "javafx-graphics"
        }
    },
    {
        "group": "org.openjfx",
        "version": "11.0.2",
        "name": "javafx-graphics",
        "module": {
            "group": "org.openjfx",
            "name": "javafx-graphics"
        }
    },
    {
        "group": "org.openjfx",
        "version": "11.0.2",
        "name": "javafx-swing",
        "module": {
            "group": "org.openjfx",
            "name": "javafx-swing"
        }
    },
    {
        "group": "org.pojomatic",
        "version": "2.0.1",
        "name": "pojomatic",
        "module": {
            "group": "org.pojomatic",
            "name": "pojomatic"
        }
    },
    {
        "group": "org.slf4j",
        "version": "1.7.25",
        "name": "slf4j-api",
        "module": {
            "group": "org.slf4j",
            "name": "slf4j-api"
        }
    }
]